[00:19:43] [Server 3] STARTING...
[00:19:43] [Server 3] PARAMETERS: ONE HEART BEAT EVERY 2 SECONDS[00:19:43] [Server 3] CONSIDERING OTHER SERVERS AS DEAD IF THEY DON'T ANSWER IN 4 SECONDS!
[00:19:43] [Server 3] LISTENER THREAD IS ALIVE!
[00:19:43] [Server 3] Found SERVER 2. Setting state to 'alive'.
[00:19:43] [Server 3] HEART BEAT THREAD IS ALIVE!
[00:19:45] [Server 3] Found SERVER 1. Setting state to 'alive'.
[00:20:35] [BASH] Killing server 3...
[00:21:11] [BASH] Resurrecting server 3...
[00:21:12] [Server 3] STARTING...
[00:21:12] [Server 3] PARAMETERS: ONE HEART BEAT EVERY 2 SECONDS[00:21:12] [Server 3] CONSIDERING OTHER SERVERS AS DEAD IF THEY DON'T ANSWER IN 4 SECONDS!
[00:21:12] [Server 3] LISTENER THREAD IS ALIVE!
[00:21:12] [Server 3] HEART BEAT THREAD IS ALIVE!
[00:21:13] [Server 3] Found SERVER 1. Setting state to 'alive'.
[00:21:34] [Server 3] Setting SERVER 2 as the new leader.
[00:21:36] [Server 3] Setting MYSELF as the new leader.
[00:21:36] [Server 3] Got expression 3-5 from Client 1. Sending answer '-2'.
[00:21:40] [Server 3] Got expression 1**7 from Client 1. Sending answer '1'.
[00:21:42] [Server 3] Got expression 3*5 from Client 1. Sending answer '15'.
[00:21:47] [Server 3] Got expression 1+7 from Client 1. Sending answer '8'.
[00:21:48] [Server 3] Found SERVER 1. Setting state to 'alive'.
[00:21:48] [Server 3] Setting SERVER 1 as the new leader.
[00:22:09] [Server 3] Setting MYSELF as the new leader.
[00:22:09] [Server 3] Got expression 3+5 from Client 1. Sending answer '8'.
[00:22:13] [Server 3] Got expression 3**5 from Client 1. Sending answer '243'.
[00:22:14] [Server 3] Got expression 1-7 from Client 1. Sending answer '-6'.
[00:22:19] [Server 3] Got expression 1-7 from Client 1. Sending answer '-6'.
[00:22:21] [Server 3] Got expression 3/5 from Client 1. Sending answer '0.6'.
[00:22:25] [Server 3] Found SERVER 1. Setting state to 'alive'.
[00:22:25] [Server 3] Setting SERVER 1 as the new leader.
[00:22:43] [BASH] Killing server 3...
