[00:19:43] [Server 1] STARTING...
[00:19:43] [Server 1] PARAMETERS: ONE HEART BEAT EVERY 2 SECONDS[00:19:43] [Server 1] CONSIDERING OTHER SERVERS AS DEAD IF THEY DON'T ANSWER IN 4 SECONDS!
[00:19:43] [Server 1] LISTENER THREAD IS ALIVE!
[00:19:43] [Server 1] HEART BEAT THREAD IS ALIVE!
[00:19:43] [Server 1] Found SERVER 2. Setting state to 'alive'.
[00:19:43] [Server 1] Found SERVER 3. Setting state to 'alive'.
[00:19:45] [Server 1] Got expression 1+7 from Client 1. Sending answer '8'.
[00:19:47] [Server 1] Got expression 1*7 from Client 1. Sending answer '7'.
[00:19:50] [Server 1] Got expression 1-7 from Client 1. Sending answer '-6'.
[00:19:53] [Server 1] Got expression 1-7 from Client 1. Sending answer '-6'.
[00:19:58] [Server 1] Got expression 3-5 from Client 1. Sending answer '-2'.
[00:20:01] [Server 1] Got expression 1*7 from Client 1. Sending answer '7'.
[00:20:06] [Server 1] Got expression 3/5 from Client 1. Sending answer '0.6'.
[00:20:11] [Server 1] Got expression 1**7 from Client 1. Sending answer '1'.
[00:20:13] [Server 1] Got expression 3*5 from Client 1. Sending answer '15'.
[00:20:16] [Server 1] Got expression 3*5 from Client 1. Sending answer '15'.
[00:20:17] [Server 1] Got expression 1/7 from Client 1. Sending answer '0.14285714285714285'.
[00:20:20] [Server 1] Got expression 1-7 from Client 1. Sending answer '-6'.
[00:20:24] [Server 1] Got expression 1/7 from Client 1. Sending answer '0.14285714285714285'.
[00:20:25] [Server 1] Got expression 1*7 from Client 1. Sending answer '7'.
[00:20:28] [Server 1] Got expression 3/5 from Client 1. Sending answer '0.6'.
[00:20:32] [Server 1] Got expression 3+5 from Client 1. Sending answer '8'.
[00:20:35] [Server 1] Got expression 3**5 from Client 1. Sending answer '243'.
[00:20:40] [Server 1] Got expression 1*7 from Client 1. Sending answer '7'.
[00:20:44] [Server 1] Got expression 3-5 from Client 1. Sending answer '-2'.
[00:20:49] [Server 1] Got expression 3-5 from Client 1. Sending answer '-2'.
[00:20:50] [Server 1] Got expression 3+5 from Client 1. Sending answer '8'.
[00:20:54] [Server 1] Got expression 1+7 from Client 1. Sending answer '8'.
[00:20:58] [Server 1] Got expression 3*5 from Client 1. Sending answer '15'.
[00:20:59] [Server 1] Got expression 1/7 from Client 1. Sending answer '0.14285714285714285'.
[00:21:01] [Server 1] Got expression 1/7 from Client 1. Sending answer '0.14285714285714285'.
[00:21:03] [Server 1] Got expression 1/7 from Client 1. Sending answer '0.14285714285714285'.
[00:21:04] [Server 1] Got expression 3/5 from Client 1. Sending answer '0.6'.
[00:21:05] [Server 1] Got expression 1+7 from Client 1. Sending answer '8'.
[00:21:06] [Server 1] Got expression 3*5 from Client 1. Sending answer '15'.
[00:21:09] [Server 1] Got expression 1*7 from Client 1. Sending answer '7'.
[00:21:10] [Server 1] Got expression 1**7 from Client 1. Sending answer '1'.
[00:21:15] [Server 1] Got expression 3/5 from Client 1. Sending answer '0.6'.
[00:21:20] [Server 1] Got expression 3/5 from Client 1. Sending answer '0.6'.
[00:21:21] [Server 1] Got expression 1*7 from Client 1. Sending answer '7'.
[00:21:23] [Server 1] Got expression 1*7 from Client 1. Sending answer '7'.
[00:21:28] [Server 1] Got expression 3/5 from Client 1. Sending answer '0.6'.
[00:21:30] [BASH] Killing server 1...
[00:21:48] [BASH] Resurrecting server 1...
[00:21:48] [Server 1] STARTING...
[00:21:48] [Server 1] PARAMETERS: ONE HEART BEAT EVERY 2 SECONDS[00:21:48] [Server 1] CONSIDERING OTHER SERVERS AS DEAD IF THEY DON'T ANSWER IN 4 SECONDS!
[00:21:48] [Server 1] LISTENER THREAD IS ALIVE!
[00:21:48] [Server 1] HEART BEAT THREAD IS ALIVE!
[00:21:50] [Server 1] Found SERVER 3. Setting state to 'alive'.
[00:21:51] [Server 1] Got expression 3/5 from Client 1. Sending answer '0.6'.
[00:21:55] [Server 1] Got expression 3*5 from Client 1. Sending answer '15'.
[00:21:56] [Server 1] Got expression 3**5 from Client 1. Sending answer '243'.
[00:22:01] [Server 1] Got expression 1**7 from Client 1. Sending answer '1'.
[00:22:04] [Server 1] Got expression 3**5 from Client 1. Sending answer '243'.
[00:22:05] [Server 1] Got expression 3/5 from Client 1. Sending answer '0.6'.
[00:22:06] [BASH] Killing server 1...
[00:22:24] [BASH] Resurrecting server 1...
[00:22:25] [Server 1] STARTING...
[00:22:25] [Server 1] PARAMETERS: ONE HEART BEAT EVERY 2 SECONDS[00:22:25] [Server 1] CONSIDERING OTHER SERVERS AS DEAD IF THEY DON'T ANSWER IN 4 SECONDS!
[00:22:25] [Server 1] LISTENER THREAD IS ALIVE!
[00:22:25] [Server 1] HEART BEAT THREAD IS ALIVE!
[00:22:25] [Server 1] Got expression 1+7 from Client 1. Sending answer '8'.
[00:22:26] [Server 1] Found SERVER 3. Setting state to 'alive'.
[00:22:28] [Server 1] Got expression 3**5 from Client 1. Sending answer '243'.
[00:22:29] [Server 1] Got expression 1**7 from Client 1. Sending answer '1'.
[00:22:32] [Server 1] Got expression 3**5 from Client 1. Sending answer '243'.
[00:22:37] [Server 1] Got expression 1+7 from Client 1. Sending answer '8'.
[00:22:41] [Server 1] Got expression 1**7 from Client 1. Sending answer '1'.
[00:22:42] [Server 1] Got expression 1+7 from Client 1. Sending answer '8'.
[00:22:43] [BASH] Killing server 1...
